Day 11 Logistic Regression
…
Attaching package: 'dplyr'

The following objects are masked from 'package:stats':

    filter, lag

The following objects are masked from 'package:base':

    intersect, setdiff, setequal, union

lb %>%
  group_by(age) %>%
  summarize(mean(low))

# A tibble: 24 x 2
     age `mean(low)`
   <int>       <dbl>
 1    14   0.6666667
 2    15   0.6666667
 3    16   0.1428571
 4    17   0.4166667
 5    18   0.2000000
 6    19   0.1875000
 7    20   0.4444444
 8    21   0.4166667
 9    22   0.1538462
10    23   0.3846154
# ... with 14 more rows
…
