Bootstrapping with recipes
…
Get resamples

library(rsample)
set.seed(2)

bt_samples <- bootstraps(ames)
bt_samples

# Bootstrap sampling 
# A tibble: 25 x 2
   splits       id         
   <list>       <chr>      
 1 <S3: rsplit> Bootstrap01
 2 <S3: rsplit> Bootstrap02
 3 <S3: rsplit> Bootstrap03
 4 <S3: rsplit> Bootstrap04
 5 <S3: rsplit> Bootstrap05
 6 <S3: rsplit> Bootstrap06
 7 <S3: rsplit> Bootstrap07
 8 <S3: rsplit> Bootstrap08
 9 <S3: rsplit> Bootstrap09
10 <S3: rsplit> Bootstrap10
# ... with 15 more rows
…
fit_lm <- function(rec_obj, ...) {
  lm(..., data = juice(rec_obj, everything()))
}

bt_samples$lm_mod <- 
  map(
    bt_samples$recipes, 
    fit_lm, 
    Sale_Price ~ .
  )

bt_samples

# Bootstrap sampling 
# A tibble: 25 x 4
   splits       id          recipes      lm_mod  
   <list>       <chr>       <list>       <list>  
 1 <S3: rsplit> Bootstrap01 <S3: recipe> <S3: lm>
 2 <S3: rsplit> Bootstrap02 <S3: recipe> <S3: lm>
 3 <S3: rsplit> Bootstrap03 <S3: recipe> <S3: lm>
 4 <S3: rsplit> Bootstrap04 <S3: recipe> <S3: lm>
 5 <S3: rsplit> Bootstrap05 <S3: recipe> <S3: lm>
 6 <S3: rsplit> Bootstrap06 <S3: recipe> <S3: lm>
 7 <S3: rsplit> Bootstrap07 <S3: recipe> <S3: lm>
 8 <S3: rsplit> Bootstrap08 <S3: recipe> <S3: lm>
 9 <S3: rsplit> Bootstrap09 <S3: recipe> <S3: lm>
10 <S3: rsplit> Bootstrap10 <S3: recipe> <S3: lm>
# ... with 15 more rows
…
bt_samples$pred <- 
  pmap(
    lst(
      split_obj = bt_samples$splits, 
      rec_obj = bt_samples$recipes, 
      model_obj = bt_samples$lm_mod
    ),
    pred_lm 
  )

bt_samples$pred[[1]]

# A tibble: 1,080 x 2
   Sale_Price predicted
        <dbl>     <dbl>
 1       5.39      5.16
 2       5.28      5.32
 3       5.37      5.13
 4       5.23      5.22
 5       5.33      5.16
 6       5.60      5.23
 7       5.15      5.31
 8       5.18      5.18
 9       5.15      5.12
10       5.06      5.15
# ... with 1,070 more rows
…
