Assignments Computational Statistics
…
  patient  min_cd4
1       1 20.59126
2       2 18.05547
3       3 22.95648
4       4 19.64688
5       5 15.87451
6       6 23.62202

We can do this we fewer lines of code using dplyr

haartdat %>%
  group_by(patient) %>%
  summarize(min_cd4 = min(cd4.sqrt))

# A tibble: 1,200 x 2
   patient min_cd4
     <int>   <dbl>
 1       1   20.6 
 2       2   18.1 
 3       3   23.0 
 4       4   19.6 
 5       5   15.9 
 6       6   23.6 
 7       7   13.1 
 8       8    9.54
 9       9   16.2 
10      10   10.6 
# ... with 1,190 more rows
…
