Pre-testing assumptions and type I error of two sample location tests
…
It looks like the pre-testing strategy has a somewhat higher type-I error rate in some situations. However, the Welch test seems what conservative in some situations too.

Let’s look at the most extreme situations.

# A tibble: 38 x 7
   distribution_type var_ratio    n1    n2     w pre_test diff_pre_w
               <dbl>     <dbl> <dbl> <dbl> <dbl>    <dbl>      <dbl>
 1              3.00      2.00  30.0  10.0  3.84     7.54      3.70 
 2              2.00      2.00  30.0  10.0  4.76     7.73      2.97 
 3              1.00      2.00  30.0  10.0  5.19     7.29      2.10 
 4              2.00      2.00  30.0  30.0  4.17     5.34      1.17 
 5              3.00      1.00  10.0  30.0  3.90     4.66      0.763
 6              2.00      1.00  30.0  30.0  4.15     4.81      0.664
 7              2.00      1.00  30.0 100    4.33     4.99      0.656
 8              2.00      2.00  10.0  10.0  4.42     5.06      0.642
 9              2.00      1.00  30.0  10.0  4.45     5.06      0.614
10              3.00      1.00  30.0  10.0  4.02     4.62      0.603
# ... with 28 more rows
…
